…
``` r
# generate random samples from a the gamma distribution
a <- 2
<<<<<<< HEAD
b <- 0.5
prior_samples <- tibble(lambda = rgamma(n = 1000, a, b))
prior_samples
```

    ## # A tibble: 1,000 x 1
    ##    lambda
    ##     <dbl>
    ##  1 10.9  
    ##  2  1.41 
    ##  3  1.51 
    ##  4  0.552
    ##  5  2.16 
    ##  6  1.37 
    ##  7  3.03 
    ##  8  4.35 
    ##  9  5.01 
    ## 10  5.85 
    ## # … with 990 more rows
…
We will now extract the samples from the fit. **rstan** knows how to
convert samples to `data.frame`. We then convert that `data.frame` to a
`tibble` for nicer printing.

``` r
prior_samples <- as.data.frame(prior_fit)
prior_samples <- as_tibble(prior_samples)
prior_samples
```

    ## # A tibble: 5,000 x 3
    ##    lambda y_sim  lp__
    ##     <dbl> <dbl> <dbl>
    ##  1   1.32     3     0
    ##  2   2.86     3     0
    ##  3   2.88     0     0
    ##  4   2.20     1     0
    ##  5   1.67     2     0
    ##  6   4.41     3     0
    ##  7   6.77     4     0
    ##  8   2.01     1     0
    ##  9   1.15     0     0
    ## 10   2.43     3     0
    ## # … with 4,990 more rows
…
We can extract the samples from this procedure using the
`as.data.frame()` function, as we did previously.
=======
We can extract the samples from this procedure using the `extract()`
function.
>>>>>>> master

``` r
posterior_samples <- as.data.frame(fit)
posterior_samples <- as_tibble(posterior_samples)
posterior_samples
```

    ## # A tibble: 20,000 x 3
    ##    lambda y_sim  lp__
    ##     <dbl> <dbl> <dbl>
    ##  1   2.82     3 2.11 
    ##  2   1.90     4 0.475
    ##  3   3.21     2 2.17 
    ##  4   2.88     7 2.14 
    ##  5   3.19     5 2.18 
    ##  6   3.23     4 2.17 
    ##  7   2.61     2 1.96 
    ##  8   2.97     8 2.17 
    ##  9   3.33     4 2.14 
    ## 10   3.07     5 2.18 
    ## # … with 19,990 more rows
…
